PCBNEW-LibModule-V1  2023-08-03 13:50:11
# encoding utf-8
Units mm
$INDEX
SMV2201040LF
$EndINDEX
$MODULE SMV2201040LF
Po 0 0 0 15 64cba283 00000000 ~~
Li SMV2201040LF
Cd SMV2201-040LF-3
Kw Diode
Sc 0
At SMD
AR 
Op 0 0 0
T0 0.000 -0 1.27 1.27 0 0.254 N V 21 N "D**"
T1 0.000 -0 1.27 1.27 0 0.254 N I 21 N "SMV2201040LF"
DS -0.3 -0.5 0.3 -0.5 0.2 24
DS 0.3 -0.5 0.3 0.5 0.2 24
DS 0.3 0.5 -0.3 0.5 0.2 24
DS -0.3 0.5 -0.3 -0.5 0.2 24
DS -0.875 -1.15 0.875 -1.15 0.1 24
DS 0.875 -1.15 0.875 1.15 0.1 24
DS 0.875 1.15 -0.875 1.15 0.1 24
DS -0.875 1.15 -0.875 -1.15 0.1 24
DS -0.05 -0.85 -0.05 -0.85 0.1 21
DS 0.05 -0.85 0.05 -0.85 0.1 21
DA -1.3877787807814E-17 -0.85 -0.050 -0.85 -1800 0.1 21
DA -1.3877787807814E-17 -0.85 0.050 -0.85 -1800 0.1 21
$PAD
Po 0.000 -0.413
Sh "1" R 0.475 0.750 0 0 900
At SMD N 00888000
Ne 0 ""
$EndPAD
$PAD
Po 0.000 0.412
Sh "2" R 0.475 0.750 0 0 900
At SMD N 00888000
Ne 0 ""
$EndPAD
$EndMODULE SMV2201040LF
$EndLIBRARY
